<svg id="Layer_1" xmlns="http://www.w3.org/2000/svg" viewBox="0 0 100 100">
  <path class="st0" d="M64.8 29.4l8.3-17.8c.2-.5 0-1-.5-1.3l-.5-.3c-.5-.2-1 0-1.3.5L39 78.6c-.2.5-.8.7-1.3.5l-.3-.1c-.5-.2-.7-.8-.5-1.3l21.8-46.6c.2-.4-.1-1-.6-1H27.2c-.7 0-1.2.6-1.2 1.2L29.7 89c0 .6.5 1 1.1 1h38.5c.6 0 1-.5 1.1-1L74 31.4c0-.7-.5-1.2-1.2-1.2h-7.5c-.4 0-.7-.5-.5-.8zM31 35.8h10.8c.3 0 .6.3.6.6v10.8c0 .3-.3.6-.6.6H31c-.3 0-.6-.3-.6-.6V36.4c0-.3.3-.6.6-.6zm27.1 45.3l-7.6-7.6c-.2-.2-.2-.6 0-.8l7.6-7.6c.2-.2.6-.2.8 0l7.6 7.6c.2.2.2.6 0 .8l-7.6 7.6c-.2.3-.6.3-.8 0z" id="drink"/>
</svg>
