<svg width="28" height="44" xmlns="http://www.w3.org/2000/svg" viewBox="0 0 28 44">
  <ellipse class="st0" cx="14" cy="40.7" rx="10.4" ry="3.3" opacity=".1"/>
  <path d="M3.7 21.338c-.9-1.5-1.5-3.2-1.7-5-.1-.5-.1-1.1-.1-1.5 0-6.9 5.4-12.5 12.1-12.5 6.7 0 12.1 5.6 12.2 12.4 0 .5-.1 1-.1 1.5-.2 1.6-.8 3.4-1.7 5L14 40.038l-10.3-18.7zm10.3-13c-3.4 0-6.2 2.8-6.2 6.2 0 3.4 2.8 6.2 6.2 6.2 3.4 0 6.2-2.8 6.2-6.2-.1-3.5-2.8-6.2-6.2-6.2z" fill="#ff6a42"/>
  <path d="M14 3.138c6.3 0 11.4 5.2 11.4 11.7 0 .4-.1.9-.1 1.4-.2 1.5-.8 3.2-1.7 4.8l-9.6 17.4-9.7-17.5c-.8-1.4-1.4-3.1-1.6-4.7-.1-.5-.1-1-.1-1.4 0-6.5 5.1-11.7 11.4-11.7m0 18.3c3.8 0 6.9-3.1 6.9-6.9s-3.1-6.9-6.9-6.9-7 3-7 6.8 3.1 7 7 7m0-19.8c-7.1 0-12.9 5.9-12.9 13.2 0 .5.1 1.1.1 1.6.3 1.8.9 3.7 1.8 5.3l11 19.9 10.9-20c.9-1.6 1.6-3.5 1.8-5.3.1-.5.1-1.1.1-1.6 0-7.2-5.7-13.1-12.8-13.1zm0 18.3c-3 0-5.4-2.4-5.4-5.4 0-3 2.4-5.4 5.4-5.4s5.4 2.4 5.4 5.4c0 2.9-2.5 5.4-5.4 5.4z" fill="#fff"/>
</svg>
