<svg id="neighborhood-map" xmlns="http://www.w3.org/2000/svg" viewBox="0 0 3000 3000">
  <path id="riverwest" class="st0" d="M1636.6 456.3c4.4-14.1 8.2-26.3 8.9-32.5 1.2-8.9-4.3-22.2-10.1-36.2-4.6-11.4-9.5-23-11.3-33.4-3.7-21.2-11.7-32.8-26.6-39.1-12.5-5.2-33-17.2-39.6-27.6-7.1-11.1-31.6-41.5-32.6-42.8l-.6-.8h-111.5v2c-.1 8.1-6.1 808-6.1 827.1 0 19.7 5.2 32.4 13.2 32.4 3.9 0 10.4-6.8 23.6-21.2 9.5-10.2 20.3-21.8 29.4-29 15.8-12.5 60.7-15.9 93.4-18.5 6.2-.5 12-.9 17.2-1.4 25.9-2.4 24.9-19.3 23.8-35.7-.4-6.4-.8-12.9.3-18.8 1-5.5 3-12.7 5.2-21 6.3-23 14.8-54.5 11-78.2-2.5-15.5-10.8-31.6-18.9-47.1-8.5-16.5-16.6-32.2-16.6-44.9 0-24.3 6.4-35.8 33.2-80.1 18.4-30.4 17-48.4 15.6-65.7-.7-8-1.2-15.6 0-24.3 2.4-16.5-3.3-41.7-8.3-63.9-3.8-16.7-7.3-32.4-6.9-41.8.4-13 8.1-37.7 14.3-57.5z"/>
  <path id="east-side" class="st0" d="M1391.7 1181.7s24.5-29.9 35.4-42.3c7-8.1 14.8-15.4 23-23 8.3-7.9 17.1-16 25.8-25.7 15.3-17.1 39.6-29.5 65.2-33.1 5.8-.9 13.6-1.5 21.8-2.3 23-2 51.5-4.5 61.5-11.7 8.1-5.8 4.5-28.1 8.8-47.7 2.9-13.4 1-26 4.6-33.7 9.3-19.6 9.7-52.2 6.9-76.1-1.4-12.2-1.8-27.3-9.6-41.7-8.9-16.7-20.2-32.5-20.2-45.7 0-22.8 6.3-46.8 18.6-65.8 8.5-13.2 22.5-23.8 28.7-39.5 1.8-4.6 3.8-9.3 5.8-14.2 5.2-12.4-6.4-36-8.3-56.8-1.2-13.9-2.4-26-1.1-33.1 1.4-8.2-1.9-20.9-5-33.1-3.3-12.7-6.7-25.8-5.1-34.9 2.8-15.4 26.3-79.7 29.2-93h350.9l11.3 112s-1.4 82 0 86.3-37 158.4-37 158.4 26.9 73.5 18.4 79.2c-8.5 5.7-80.6 103.2-80.6 103.2h-19.8l-93 130.4-89.1 29.3-24-12.7-134.3 198 26.1 28.3-25.6 44.2-38.7-19.3-90.3 23.6-8.6-126.4-126.9 1.9 75.2-83z"/>
  <path id="historic-third-ward" class="st0" d="M1570.8 1639.3l20.4-7.9s10.8 36.9 19.6 52.5c2.9 5.3 27.4 52.5-27.1 86.4l-2.1 72.8-116.9 5.2-.6-1.1c-.3-.7-31.7-62.9-63.5-90.7-21-18.3-40.2-28.5-54.3-36-7.7-4.1-13.7-7.3-17.7-10.6-11.6-9.4-11.1-15.2-10.8-16.2l8.9-100.4 185.4-13.8 52.7 12.8c-.5 10.7-1.1 27-.6 31.6.6 3.8.8 8.1-1.8 10.4l8.4 5z"/>
  <path id="westown" class="st0" d="M1274.8 1453.9c-11.1-16.9-21.5-32.8-25.5-45.9-4.7-15.3-.8-46.1 5.5-73.9l-98.9-4.6-2 16.3c-5.1-.3-19.2-.9-22.3-.9-4.6-1.2-62.1-38.1-99.7-62.6l-2.9-1.9-.2 3.5c-.2 3.3-4 81.7 0 105.9 1.5 9.2 4 13.8 6.3 18.1 3.9 7.3 7.9 14.8 7.9 46.5 0 21.2 3.4 43.1 7.4 70.1l15.6 67.5 92.8 3v52.7c12.1.3 76.4 2.2 88.6 4 13.6 2.1 53.1 24.4 53.5 24.6l1.2.7 6.2-33.3c5-72.1 3.6-110.6-4.6-137.5-4.9-15.7-17-34.3-28.9-52.3z"/>
  <path id="east-town" class="st0" d="M1312.6 1285.5c-7.2 3.1-16.4 19.3-24.1 39l4.4 107c12.1 18.5 30.3 50.7 35.5 67.8 5.1 16.9 11.8 35 11.9 73.3l185.1-13.7 20.7-78.8 32.7-71.6-39-24.7-105.3 30.4-8.9-126-113-2.7z"/>
  <path id="menomonee-river-valley" class="st0" d="M1293.4 1721c-.5-7.8-1.4-16.2-1.4-16.2l-4.6-2.6c-12.3-7-40.7-21.8-49.3-23.1l.7-4c-12.6-1.9-88.8-4-89.5-4l-6-.2v-52.8l-91.2-3-.9-4.7-9.2-39.9-20.4 2.2c-1.6.2-5.9 1.5-13 3.5-25.1 7.3-83.8 24.4-123.9 22.9-25.1-1-91-2-150.5-2.8l-120.5 54.6c-4.3 4-33.5 30-66.4 35.5l-8.4 1.4c-35.6 6-76 12.8-117 12.8-12 0-23.3.7-33.3 1.2-26.8 1.6-48.1 2.8-66-10.1-25.2-18.2-53.2-19.6-84.4-19.6-13.3 0-19.9 0-23.3 4.3-3.9 4.8-2 13.3 2.5 33.8.8 3.7 1.7 7.7 2.7 12.1 4.1 19.3 8.3 32.2 11.2 41.5 4.5 13.9 6.4 20.3 3 29.3-6.5 17.5-14.3 41.3-14.3 55.5 0 14-1 46.3-1 46.7l-.1 2.1h238l.4-.2c.9-.4 95.8-39.8 127-55.9 5.7-2.9 12.2-6.5 19.2-10.4 32.1-17.7 75.9-42.1 112.8-42.1 0 0 73.9 7.4 111.8 16.6 27.1 6.5 52.7 12.8 62.8 12.8l177.9-2c9.5-6.9 114.9-83.2 146.8-83.2h73.4l4.4-12z"/>
  <path id="walkers-point" class="st0" d="M1291.9 1759.9H1219c-25 0-111.4 59.2-142.6 82l-1.6 1.1-180.6 2.1c-.7 0-1.3 0-2.1-.1v244.6h392.8v-2.1l7-327.6z"/>
  <path id="harambee-bronzeville" class="st0" d="M1389.5 421.6s-178.7-5.7-243.7 5.7l-22.7 555.8H1383l6.5-561.5z"/>
  <path id="brewers-hill" class="st0" d="M1246.2 1008v187.2h74.3l16.3-18.4 15.5-19.9-1.4-29.6 28.3-1.5 10.3-10.9V1008z"/>
  <path id="clarke-square" class="st0" d="M861.2 1916.2H611.8v182.4l249.4-4.6z"/>
  <g id="avenues-west-marquette">
    <path class="st0" d="M1015.8 1448l11.3 94.8s-103.2 27.1-111.7 29.9c-8.4 2.7-145.7 0-145.7 0V1441l246.1 7z"/>
    <path class="st0" d="M1004.5 1371.7l7 44.9-268-1v157.1l-43.1 1.2-87.6 44.9v-247.1z"/>
  </g>
  <g id="harbor-district">
    <path id="_x3C_Path_x3E_" class="st0" d="M1427.1 2036.4c-1.6-2.5-3.3-4.9-5-7.5l-2.5-3.6c-18.2-27.1-38.8-57.9-19.1-87 2.9-4.4 5.9-8.5 8.8-12.5 18.1-25.4 39.9-54 24.5-85.8-14.6-30-74.9-102-119.1-103.9-1.1-.1-.9 1.6-.9 1.6l-4.7 12.1-7.1 335.5v84.7s-1.8 6.4-.8 9.1c44.9 120.1 53.3 113.5 53.5 113.4 3.8-1.2 37-22.8 40.1-42.6 2.9-18.8 4.7-24.7 12-39.3 7.5-15.1 39-84.4 44.1-108.7 4.8-23.1-7.8-41.8-23.8-65.5z"/>
    <path class="st0" d="M1509 2131.7l15.2 19.1 58.2 189.3 77.1-38.5 1.8 3.6-68.6-202.8 49-61.3-15.2-39.8-49.7 51.1-4.5-11.3 45.9-59.1-9.7-28.1-43.7 54.9-3.8-13.5 57.1-73.4-7.6-54-130.5 19.9-39.9 56.8 56.4 131.9h-18.8z"/>
  </g>
  <path id="bayview_1_" class="st0" d="M1725.6 2803.1c7-1 193.5-3.4 300.7-4.7-.1-.6-.2-1.1-.3-1.8-1.7-7.6-6.6-13.6-14.7-18-12.1-6.6-14.1-10.4-17.1-16.3-2.4-4.6-5.3-10.3-13.8-18.9-11.2-11.2-25.7-19.3-38.5-26.6-9.3-5.2-18-10.1-23.4-15.2-8.6-8-15.7-19.7-19.8-26.7-2.9-5-3.9-6.4-5-7-1.9-.9-5.2-.7-7.1-.4l-54.5-71.4c.6-4.4 2.7-20.8-.3-26.7-3.3-6.6-17.5-3-22.5-1.4l-32.1-35v-12.1l-26.9-29.9 9.1-15.3-22.1-24.1-44-34.5-20.5-91.2c-4.1 1.8-10.1-5.7-10.1-5.7l-85.1 42.6-26.9-86.1c-32.9-42.6-93.3-119.4-101.4-119.4-6.2 0-9.3 11-13.9 29-3 11.9-6.5 25.2-11 30.5-5.1 6.2-7.7 14.5-10 21.9-2.1 6.8-18.4 43.2-20.8 48.7-5.6 13.1-27.2 26.7-43.1 26.7-15.9 0-57.3-10.7-58-10.8l-34.1-1.1v55.4l50 66.5-41.1 148.3h-39.5l17 266.1-45.2 113.2 131.6 5.7 4.6 30.2h487.4c0-.1-107.5-183.1-97.6-184.5z"/>
</svg>
