<?xml version="1.0" encoding="utf-8"?>
<!-- Generator: Adobe Illustrator 21.1.0, SVG Export Plug-In . SVG Version: 6.00 Build 0)  -->
<svg version="1.1" id="Layer_1" xmlns="http://www.w3.org/2000/svg" xmlns:xlink="http://www.w3.org/1999/xlink" x="0px" y="0px"
	 viewBox="0 0 75 56.2" style="enable-background:new 0 0 75 56.2;" xml:space="preserve">
<style type="text/css">
	.st0{fill:#FFFFFF;}
</style>
<path class="st0" d="M75,43.8L59.4,31.2v6.2h-6.2c-12.5,0-21.9-31.2-40.6-31.2H3.1C0,6.2,0,6.2,0,9.4v6.2c0,3.1,0,3.1,3.1,3.1h9.4
	C26.6,18.8,34.4,50,53.1,50h6.2v6.2L75,43.8z M29.6,40.7l-6.9-8.8c-2.2,2.6-5.9,5.6-10.2,5.6H3.1c-3.1,0-3.1,0-3.1,3.1v6.2
	C0,50,0,50,3.1,50h9.4C19.9,50,25.8,45.2,29.6,40.7z M75,12.5L59.4,0v6.2h-6.2c-7.3,0-13,4.8-16.2,8.9l7.1,8.8
	c1.9-2.2,5.4-5.2,9.2-5.2h6.2V25L75,12.5z"/>
</svg>
